%YAML 1.1
%TAG !u! tag:unity3d.com,2011:
--- !u!21 &2100000
Material:
  serializedVersion: 3
  m_ObjectHideFlags: 0
  m_PrefabParentObject: {fileID: 0}
  m_PrefabInternal: {fileID: 0}
  m_Name: PlasmaShooter
  m_Shader: {fileID: 4800000, guid: 0dd61024e431c604b98b065d182e0222, type: 3}
  m_SavedProperties:
    serializedVersion: 2
    m_TexEnvs:
      data:
        first:
          name: _MainTex
        second:
          m_Texture: {fileID: 2800000, guid: 1d7870dafe144ac41a6d9569b8f3e6ae, type: 3}
          m_Scale: {x: 1, y: 1}
          m_Offset: {x: 0, y: 0}
      data:
        first:
          name: _BumpMap
        second:
          m_Texture: {fileID: 2800000, guid: d884d31739a5d8540bd02881431cf7ac, type: 3}
          m_Scale: {x: 1, y: 1}
          m_Offset: {x: 0, y: 0}
      data:
        first:
          name: _SpecularTex
        second:
          m_Texture: {fileID: 2800000, guid: 1f8971fe91b013e46a0655f5b97d1df0, type: 3}
          m_Scale: {x: 1, y: 1}
          m_Offset: {x: 0, y: 0}
      data:
        first:
          name: _RampTex
        second:
          m_Texture: {fileID: 2800000, guid: 8c24ce677edcdb04481dc0b4e9924ca2, type: 3}
          m_Scale: {x: 1, y: 1}
          m_Offset: {x: 0, y: 0}
    m_Floats:
      data:
        first:
          name: _RimPower
        second: 3
      data:
        first:
          name: _IllumPower
        second: 25
    m_Colors:
      data:
        first:
          name: _Color
        second: {r: .417910457, g: .258854985, b: .258854985, a: 1}
      data:
        first:
          name: _RimColor
        second: {r: .813989758, g: .839604795, b: .940298498, a: .749019623}
      data:
        first:
          name: _IllumTint
        second: {r: .567169428, g: .31380713, b: .114284299, a: 1}
      data:
        first:
          name: _ChannelA
        second: {r: .313725501, g: 0, b: 0, a: 1}
      data:
        first:
          name: _ChannelB
        second: {r: .283582091, g: .283582091, b: .283582091, a: 1}
      data:
        first:
          name: _ChannelC
        second: {r: .49253732, g: .49253732, b: .49253732, a: 1}
