parker_third_middle_box . position [12,0,0]
parker_third_middle_box . rotation [0,0,0]
parker_second_middle_box . position [4,0,0]
parker_second_middle_box . rotation [0,0,0]
parker_third_back_box . position [-12,0,0]
parker_third_back_box . rotation [0,0,0]
parker_second_back_box . position [-4,0,0]
parker_second_back_box . rotation [0,0,0]
middle_box . position [19,0,0]
middle_box . rotation [0,0,0]
front_base_right_elbow . position [19,0,-6]
front_base_right_elbow . rotation [90,0,-90]
front_right_elbow . position [19,0,-9]
front_right_elbow . rotation [0,90,0]
front_right_leg_box . position [19,0,-11]
front_right_leg_box . rotation [0,0,0]
front_base_left_elbow . position [19,0,6]
front_base_left_elbow . rotation [90,90,0]
front_left_elbow . position [19,0,9]
front_left_elbow . rotation [0,90,0]
front_left_leg_box . position [19,0,11]
front_left_leg_box . rotation [0,0,0]
front_foot . position [19,0,14]
front_foot . rotation [-90,0,0]
front_foot2 . position [19,0,-14]
front_foot2 . rotation [-90,180,0]
master . position [0,0,0]
master . rotation [0,0,0]
middle_base_right_elbow . position [0,0,-6]
middle_base_right_elbow . rotation [90,0,-90]
middle_right_elbow . position [0,0,-9]
middle_right_elbow . rotation [0,90,0]
middle_right_leg_box . position [0,0,-11]
middle_right_leg_box . rotation [0,0,0]
middle_base_left_elbow . position [0,0,6]
middle_base_left_elbow . rotation [90,90,0]
middle_left_elbow . position [0,0,9]
middle_left_elbow . rotation [0,90,0]
middle_left_leg_box . position [0,0,11]
middle_left_leg_box . rotation [0,0,0]
test_foot . position [0,0,14]
test_foot . rotation [-90,0,0]
test_foot2 . position [0,0,-14]
test_foot2 . rotation [-90,180,0]
back_box . position [-19,0,0]
back_box . rotation [0,0,0]
back_base_right_elbow . position [-19,0,-6]
back_base_right_elbow . rotation [90,0,-90]
back_right_elbow . position [-19,0,-9]
back_right_elbow . rotation [0,90,0]
back_right_leg_box . position [-19,0,-11]
back_right_leg_box . rotation [0,0,0]
back_base_left_elbow . position [-19,0,6]
back_base_left_elbow . rotation [90,90,0]
back_left_elbow . position [-19,0,9]
back_left_elbow . rotation [0,90,0]
back_left_leg_box . position [-19,0,11]
back_left_leg_box . rotation [0,0,0]
back_foot . position [-19,0,14]
back_foot . rotation [-90,0,0]
back_foot2 . position [-19,0,-14]
back_foot2 . rotation [-90,180,0]
front_base_right_elbow_timeline . position [0,0,0]
front_base_right_elbow_timeline . rotation [0,0,0]
front_right_elbow_timeline . position [0,0,0]
front_right_elbow_timeline . rotation [0,0,0]
middle_right_elbow_timeline . position [0,0,0]
middle_right_elbow_timeline . rotation [0,0,0]
middle_base_right_elbow_timeline . position [0,0,0]
middle_base_right_elbow_timeline . rotation [0,0,0]
front_shield_ant . position [21,2,0]
front_shield_ant . rotation [-90,0,0]
shield_a . position [12,1,0]
shield_a . rotation [0,90,-90]
shield_b . position [-4,1,0]
shield_b . rotation [0,-90,-90]
shield_c . position [4,1,0]
shield_c . rotation [0,90,-90]
shield_d . position [-12,1,0]
shield_d . rotation [0,-90,-90]
left_shield_a . position [-19,2,12]
left_shield_a . rotation [-90,90,0]
left_shield_b . position [0,2,12]
left_shield_b . rotation [-90,90,0]
left_shield_c . position [19,2,12]
left_shield_c . rotation [-90,90,0]
right_shield_a . position [-19,2,-12]
right_shield_a . rotation [-90,-90,0]
right_shield_b . position [0,2,-12]
right_shield_b . rotation [-90,-90,0]
right_shield_c . position [19,2,-12]
right_shield_c . rotation [-90,-90,0]
right_clip . position [-23,0,4]
right_clip . rotation [0,0,180]
left_clip . position [-23,0,-4]
left_clip . rotation [0,180,0]
right_clip_elbow . position [-24,0,2]
right_clip_elbow . rotation [0,-90,0]
left_clip_elbow . position [-24,0,-2]
left_clip_elbow . rotation [0,90,0]
jaw . position [-24,0,0]
jaw . rotation [0,0,0]