%YAML 1.1
%TAG !u! tag:unity3d.com,2011:
--- !u!21 &2100000
Material:
  serializedVersion: 3
  m_ObjectHideFlags: 0
  m_PrefabParentObject: {fileID: 0}
  m_PrefabInternal: {fileID: 0}
  m_Name: Workshop
  m_Shader: {fileID: 104, guid: 0000000000000000e000000000000000, type: 0}
  m_SavedProperties:
    serializedVersion: 2
    m_TexEnvs:
      data:
        first:
          name: _MainTex
        second:
          m_Texture: {fileID: 0}
          m_Scale: {x: 1, y: 1}
          m_Offset: {x: 0, y: 0}
      data:
        first:
          name: _FrontTex
        second:
          m_Texture: {fileID: 2800000, guid: e8724e9a50eb14662b2b9a871f7a3f2e, type: 1}
          m_Scale: {x: 10, y: 10}
          m_Offset: {x: 0, y: 0}
      data:
        first:
          name: _BackTex
        second:
          m_Texture: {fileID: 2800000, guid: e8724e9a50eb14662b2b9a871f7a3f2e, type: 1}
          m_Scale: {x: 10, y: 10}
          m_Offset: {x: 0, y: 0}
      data:
        first:
          name: _LeftTex
        second:
          m_Texture: {fileID: 2800000, guid: e8724e9a50eb14662b2b9a871f7a3f2e, type: 1}
          m_Scale: {x: 10, y: 10}
          m_Offset: {x: 0, y: 0}
      data:
        first:
          name: _RightTex
        second:
          m_Texture: {fileID: 2800000, guid: e8724e9a50eb14662b2b9a871f7a3f2e, type: 1}
          m_Scale: {x: 10, y: 10}
          m_Offset: {x: 0, y: 0}
      data:
        first:
          name: _UpTex
        second:
          m_Texture: {fileID: 2800000, guid: e8724e9a50eb14662b2b9a871f7a3f2e, type: 1}
          m_Scale: {x: 10, y: 10}
          m_Offset: {x: 0, y: 0}
      data:
        first:
          name: _DownTex
        second:
          m_Texture: {fileID: 2800000, guid: e8724e9a50eb14662b2b9a871f7a3f2e, type: 1}
          m_Scale: {x: 10, y: 10}
          m_Offset: {x: 0, y: 0}
    m_Floats: {}
    m_Colors:
      data:
        first:
          name: _Color
        second: {r: 1, g: 1, b: 1, a: 1}
      data:
        first:
          name: _Tint
        second: {r: .0243440755, g: .0605600476, b: .0612244606, a: .0199999996}
