%YAML 1.1
%TAG !u! tag:unity3d.com,2011:
--- !u!21 &2100000
Material:
  serializedVersion: 3
  m_ObjectHideFlags: 0
  m_PrefabParentObject: {fileID: 0}
  m_PrefabInternal: {fileID: 0}
  m_Name: HexagonTop
  m_Shader: {fileID: 4800000, guid: 7a9ebc6a9163b42e69ed5d9cb8e7919d, type: 1}
  m_SavedProperties:
    serializedVersion: 2
    m_TexEnvs:
      data:
        first:
          name: _MainTex
        second:
          m_Texture: {fileID: 2800000, guid: a1bbd70430e6f41a69e0cdb3897088b5, type: 1}
          m_Scale: {x: 1, y: 1}
          m_Offset: {x: 0, y: 0}
      data:
        first:
          name: _BumpMap
        second:
          m_Texture: {fileID: 0}
          m_Scale: {x: 1, y: 1}
          m_Offset: {x: 0, y: 0}
      data:
        first:
          name: _Detail
        second:
          m_Texture: {fileID: 2800000, guid: 58d8137de3b0343258d4d6fed16b2569, type: 1}
          m_Scale: {x: 4, y: 4}
          m_Offset: {x: 0, y: 0}
      data:
        first:
          name: _SpecularTex
        second:
          m_Texture: {fileID: 2800000, guid: 6863de52ad08648cf9bfb86b7c9692a6, type: 1}
          m_Scale: {x: 1, y: 1}
          m_Offset: {x: 0, y: 0}
      data:
        first:
          name: _RampTex
        second:
          m_Texture: {fileID: 2800000, guid: 8c24ce677edcdb04481dc0b4e9924ca2, type: 1}
          m_Scale: {x: 1, y: 1}
          m_Offset: {x: 0, y: 0}
      data:
        first:
          name: _RimTex
        second:
          m_Texture: {fileID: 2800000, guid: a2959329453d14dcabb5ce237f38deb7, type: 1}
          m_Scale: {x: 1, y: 1}
          m_Offset: {x: 0, y: 0}
      data:
        first:
          name: _WrapTex
        second:
          m_Texture: {fileID: 2800000, guid: f69dc9669562642fbb6b93ac3fdc5fc7, type: 1}
          m_Scale: {x: 1, y: 1}
          m_Offset: {x: 0, y: 0}
    m_Floats:
      data:
        first:
          name: _Cutoff
        second: .5
      data:
        first:
          name: _Shininess
        second: .0901666954
      data:
        first:
          name: _RimPower
        second: .680000007
      data:
        first:
          name: _IllumPower
        second: 0
      data:
        first:
          name: _Size
        second: .0500000007
      data:
        first:
          name: _Falloff
        second: 4.3499999
      data:
        first:
          name: _FalloffPlanet
        second: 9.40999985
      data:
        first:
          name: _Transparency
        second: 16.2099991
      data:
        first:
          name: _TransparencyPlanet
        second: .469999999
    m_Colors:
      data:
        first:
          name: _Color
        second: {r: .621392727, g: .546330273, b: .607398689, a: 1}
      data:
        first:
          name: _SpecColor
        second: {r: 1, g: .684706569, b: .757560849, a: 1}
      data:
        first:
          name: _RimColor
        second: {r: 1, g: .974635303, b: .000193834305, a: 1}
      data:
        first:
          name: _ChannelA
        second: {r: .588189602, g: .364012837, b: .342716128, a: 1}
      data:
        first:
          name: _ChannelB
        second: {r: 0, g: 0, b: 0, a: 1}
      data:
        first:
          name: _ChannelC
        second: {r: 0, g: 0, b: 0, a: 1}
      data:
        first:
          name: _AtmoColor
        second: {r: 1, g: .770281255, b: .747399509, a: 1}
