%YAML 1.1
%TAG !u! tag:unity3d.com,2011:
--- !u!21 &2100000
Material:
  serializedVersion: 3
  m_ObjectHideFlags: 0
  m_PrefabParentObject: {fileID: 0}
  m_PrefabInternal: {fileID: 0}
  m_Name: GroundLava
  m_Shader: {fileID: 4800000, guid: 0dd61024e431c604b98b065d182e0222, type: 3}
  m_SavedProperties:
    serializedVersion: 2
    m_TexEnvs:
      data:
        first:
          name: _MainTex
        second:
          m_Texture: {fileID: 2800000, guid: a75fcc59e15c9da4d81a712f6f12ba21, type: 3}
          m_Scale: {x: 1, y: 1}
          m_Offset: {x: 0, y: 0}
      data:
        first:
          name: _BumpMap
        second:
          m_Texture: {fileID: 2800000, guid: 27e967ec6b2264f46b2fe0b8261fe70c, type: 3}
          m_Scale: {x: 1, y: 1}
          m_Offset: {x: 0, y: 0}
      data:
        first:
          name: _SpecularTex
        second:
          m_Texture: {fileID: 2800000, guid: 608a354a64c5d5847bcaa24804077c30, type: 3}
          m_Scale: {x: 1, y: 1}
          m_Offset: {x: 0, y: 0}
    m_Floats:
      data:
        first:
          name: _RimPower
        second: 2.38653851
      data:
        first:
          name: _IllumPower
        second: 22.1153851
    m_Colors:
      data:
        first:
          name: _Color
        second: {r: 1, g: 1, b: 1, a: 1}
      data:
        first:
          name: _RimColor
        second: {r: .649253726, g: .808683753, b: 1, a: .749019623}
      data:
        first:
          name: _IllumTint
        second: {r: .99999994, g: .146853134, b: 0, a: 1}
      data:
        first:
          name: _ChannelA
        second: {r: .492542982, g: .485655069, b: 0, a: 1}
      data:
        first:
          name: _ChannelB
        second: {r: 0, g: 0, b: 0, a: 1}
      data:
        first:
          name: _ChannelC
        second: {r: .0040097991, g: .00465239491, b: .022388041, a: 1}
