%YAML 1.1
%TAG !u! tag:unity3d.com,2011:
--- !u!21 &2100000
Material:
  serializedVersion: 3
  m_ObjectHideFlags: 0
  m_PrefabParentObject: {fileID: 0}
  m_PrefabInternal: {fileID: 0}
  m_Name: PlanetSurfaceRocky
  m_Shader: {fileID: 4800000, guid: 5ac0130d04e6ceb408b81b5c01ffbff3, type: 3}
  m_SavedProperties:
    serializedVersion: 2
    m_TexEnvs:
      data:
        first:
          name: _MainTex
        second:
          m_Texture: {fileID: 2800000, guid: 10b85e4dda0c1534fa2b3d84e3543923, type: 3}
          m_Scale: {x: 2, y: 2}
          m_Offset: {x: 0, y: 0}
      data:
        first:
          name: _BumpMap
        second:
          m_Texture: {fileID: 2800000, guid: bb8a03b6726ac0e4e85ddf4db5a65ae5, type: 3}
          m_Scale: {x: 1, y: 1}
          m_Offset: {x: 0, y: 0}
      data:
        first:
          name: _SpecularTex
        second:
          m_Texture: {fileID: 2800000, guid: 8d3ce6f44bb883b459e1ffa9e9e28fa9, type: 3}
          m_Scale: {x: 1, y: 1}
          m_Offset: {x: 0, y: 0}
    m_Floats:
      data:
        first:
          name: _RimPower
        second: 1.32692313
      data:
        first:
          name: _IllumPower
        second: 0
    m_Colors:
      data:
        first:
          name: _Color
        second: {r: 1, g: 1, b: 1, a: 1}
      data:
        first:
          name: _RimColor
        second: {r: .263850361, g: .856365025, b: .99999994, a: 1}
      data:
        first:
          name: _Tint
        second: {r: .568337202, g: .562035799, b: .695361555, a: 1}
      data:
        first:
          name: _IllumTint
        second: {r: 1, g: 1, b: 1, a: 1}
