%YAML 1.1
%TAG !u! tag:unity3d.com,2011:
--- !u!21 &2100000
Material:
  serializedVersion: 3
  m_ObjectHideFlags: 0
  m_PrefabParentObject: {fileID: 0}
  m_PrefabInternal: {fileID: 0}
  m_Name: GroundSide02
  m_Shader: {fileID: 4800000, guid: 5ac0130d04e6ceb408b81b5c01ffbff3, type: 1}
  m_SavedProperties:
    serializedVersion: 2
    m_TexEnvs:
      data:
        first:
          name: _MainTex
        second:
          m_Texture: {fileID: 2800000, guid: cc7e1b61da24bc946a8cfc95062f56a2, type: 1}
          m_Scale: {x: 1, y: 1}
          m_Offset: {x: 0, y: 0}
      data:
        first:
          name: _BumpMap
        second:
          m_Texture: {fileID: 2800000, guid: cf1d1e31e1eabc047bedd943b355136c, type: 1}
          m_Scale: {x: 1, y: 1}
          m_Offset: {x: 0, y: 0}
      data:
        first:
          name: _SpecularTex
        second:
          m_Texture: {fileID: 2800000, guid: 46499a956842c5441b4fb6317a92c21b, type: 1}
          m_Scale: {x: 1, y: 1}
          m_Offset: {x: 0, y: 0}
      data:
        first:
          name: _RampTex
        second:
          m_Texture: {fileID: 2800000, guid: 8c24ce677edcdb04481dc0b4e9924ca2, type: 1}
          m_Scale: {x: 1, y: 1}
          m_Offset: {x: 0, y: 0}
    m_Floats:
      data:
        first:
          name: _RimPower
        second: 1.49423075
      data:
        first:
          name: _IllumPower
        second: 0
    m_Colors:
      data:
        first:
          name: _Color
        second: {r: .800000012, g: .800000012, b: .800000012, a: 1}
      data:
        first:
          name: _TintColor
        second: {r: .53724885, g: .499928832, b: .494079292, a: .5}
      data:
        first:
          name: _Tint
        second: {r: .552941203, g: .490196079, b: .482352942, a: 1}
      data:
        first:
          name: _RimColor
        second: {r: .400000006, g: .800000012, b: 1, a: 1}
      data:
        first:
          name: _IllumTint
        second: {r: 1, g: 1, b: 1, a: 1}
      data:
        first:
          name: _ChannelA
        second: {r: .35082674, g: .312972575, b: .227800667, a: 1}
      data:
        first:
          name: _ChannelB
        second: {r: .298513651, g: .194700643, b: .147031412, a: 1}
      data:
        first:
          name: _ChannelC
        second: {r: .0671641827, g: .0256048776, b: .00651592668, a: 1}
