wall_xform as xform
wall_xform local_to gaia

################################################
# wall001
################################################
wall00001 . position [0,0,0]
wall00001 . rotation [0,0,0]
wall00001 . permissions 31
wall00001 as wall
wall00001 local_to wall_xform