%YAML 1.1
%TAG !u! tag:unity3d.com,2011:
--- !u!21 &2100000
Material:
  serializedVersion: 3
  m_ObjectHideFlags: 0
  m_PrefabParentObject: {fileID: 0}
  m_PrefabInternal: {fileID: 0}
  m_Name: HookMainBody
  m_Shader: {fileID: 4800000, guid: 0dd61024e431c604b98b065d182e0222, type: 3}
  m_SavedProperties:
    serializedVersion: 2
    m_TexEnvs:
      data:
        first:
          name: _MainTex
        second:
          m_Texture: {fileID: 2800000, guid: f4ce4a4903f9df3479b14dcbe59998c1, type: 3}
          m_Scale: {x: 1, y: 1}
          m_Offset: {x: 0, y: 0}
      data:
        first:
          name: _BumpMap
        second:
          m_Texture: {fileID: 2800000, guid: a1153f84679acc54a96bd7c3cd7bfa87, type: 3}
          m_Scale: {x: 1, y: 1}
          m_Offset: {x: 0, y: 0}
      data:
        first:
          name: _SpecularTex
        second:
          m_Texture: {fileID: 2800000, guid: 438777cfc79827447abc0b7ed46229f2, type: 3}
          m_Scale: {x: 1, y: 1}
          m_Offset: {x: 0, y: 0}
    m_Floats:
      data:
        first:
          name: _RimPower
        second: 3
      data:
        first:
          name: _IllumPower
        second: 47.1153831
    m_Colors:
      data:
        first:
          name: _Color
        second: {r: 1, g: 1, b: 1, a: 1}
      data:
        first:
          name: _RimColor
        second: {r: .656716406, g: .798350811, b: 1, a: .749019623}
      data:
        first:
          name: _IllumTint
        second: {r: 0, g: .539594829, b: .588235319, a: 1}
      data:
        first:
          name: _ChannelA
        second: {r: 0, g: 0, b: 0, a: 1}
      data:
        first:
          name: _ChannelB
        second: {r: .26119405, g: 0, b: 0, a: 1}
      data:
        first:
          name: _ChannelC
        second: {r: .305970132, g: .287703246, b: .287703246, a: 1}
