%YAML 1.1
%TAG !u! tag:unity3d.com,2011:
--- !u!21 &2100000
Material:
  serializedVersion: 3
  m_ObjectHideFlags: 0
  m_PrefabParentObject: {fileID: 0}
  m_PrefabInternal: {fileID: 0}
  m_Name: BridgeEnergyWalk
  m_Shader: {fileID: 4800000, guid: 25d7e81d44396494f93ee82f8257384b, type: 1}
  m_SavedProperties:
    serializedVersion: 2
    m_TexEnvs:
      data:
        first:
          name: _MainTex
        second:
          m_Texture: {fileID: 2800000, guid: daf42134d203447b38d455a74b0230b7, type: 1}
          m_Scale: {x: 1, y: 1}
          m_Offset: {x: 0, y: 0}
      data:
        first:
          name: _BumpMap
        second:
          m_Texture: {fileID: 2800000, guid: 944d12ed0521b41e88d3c853d4db50b8, type: 1}
          m_Scale: {x: 1, y: 1}
          m_Offset: {x: 0, y: 0}
      data:
        first:
          name: _Detail
        second:
          m_Texture: {fileID: 0}
          m_Scale: {x: 1, y: 1}
          m_Offset: {x: 0, y: 0}
      data:
        first:
          name: _SpecularTex
        second:
          m_Texture: {fileID: 2800000, guid: 9dd10a1a1a9e34589b721100c997b013, type: 1}
          m_Scale: {x: 1, y: 1}
          m_Offset: {x: 0, y: 0}
      data:
        first:
          name: _RampTex
        second:
          m_Texture: {fileID: 2800000, guid: 8c24ce677edcdb04481dc0b4e9924ca2, type: 1}
          m_Scale: {x: 1, y: 1}
          m_Offset: {x: 0, y: 0}
    m_Floats:
      data:
        first:
          name: _Cutoff
        second: .5
      data:
        first:
          name: _Shininess
        second: .078125
      data:
        first:
          name: _RimPower
        second: 2.10769224
      data:
        first:
          name: _IllumPower
        second: 2.88461542
      data:
        first:
          name: _Fade
        second: .06283582
    m_Colors:
      data:
        first:
          name: _Color
        second: {r: .800000012, g: .800000012, b: .800000012, a: 1}
      data:
        first:
          name: _SpecColor
        second: {r: .5, g: .5, b: .5, a: 1}
      data:
        first:
          name: _TintColor
        second: {r: .0593213402, g: .974393964, b: .99999994, a: .189999998}
      data:
        first:
          name: _RimColor
        second: {r: .641836941, g: .779051304, b: .99999994, a: 1}
      data:
        first:
          name: _Tint
        second: {r: .141791046, g: .141791046, b: .141791046, a: 1}
      data:
        first:
          name: _IllumTint
        second: {r: .962686539, g: 0, b: 0, a: 1}
      data:
        first:
          name: _ChannelA
        second: {r: .220023632, g: .30574137, b: .313593388, a: 1}
      data:
        first:
          name: _ChannelB
        second: {r: .557195365, g: .629940689, b: .649253726, a: .729411781}
      data:
        first:
          name: _ChannelC
        second: {r: .563934088, g: .619403005, b: .619403005, a: 1}
