%YAML 1.1
%TAG !u! tag:unity3d.com,2011:
--- !u!21 &2100000
Material:
  serializedVersion: 3
  m_ObjectHideFlags: 0
  m_PrefabParentObject: {fileID: 0}
  m_PrefabInternal: {fileID: 0}
  m_Name: mcn_hel_awr_gen01_02
  m_Shader: {fileID: 4800000, guid: 0dd61024e431c604b98b065d182e0222, type: 1}
  m_SavedProperties:
    serializedVersion: 2
    m_TexEnvs:
      data:
        first:
          name: _MainTex
        second:
          m_Texture: {fileID: 2800000, guid: 15b6449cadfcc0946a67f2f7ebea1e68, type: 1}
          m_Scale: {x: 1, y: 1}
          m_Offset: {x: 0, y: 0}
      data:
        first:
          name: _BumpMap
        second:
          m_Texture: {fileID: 2800000, guid: 6c0d8012e2472644ea771774b707f712, type: 1}
          m_Scale: {x: 1, y: 1}
          m_Offset: {x: 0, y: 0}
      data:
        first:
          name: _SpecularTex
        second:
          m_Texture: {fileID: 2800000, guid: 8588dc14cfa7b1e4999890c47265ddf9, type: 1}
          m_Scale: {x: 1, y: 1}
          m_Offset: {x: 0, y: 0}
      data:
        first:
          name: _RampTex
        second:
          m_Texture: {fileID: 2800000, guid: 8c24ce677edcdb04481dc0b4e9924ca2, type: 1}
          m_Scale: {x: 1, y: 1}
          m_Offset: {x: 0, y: 0}
    m_Floats:
      data:
        first:
          name: _RimPower
        second: 3
    m_Colors:
      data:
        first:
          name: _Color
        second: {r: .800000012, g: .800000012, b: .800000012, a: 1}
      data:
        first:
          name: _RimColor
        second: {r: .022388041, g: .630832076, b: 1, a: .749019623}
      data:
        first:
          name: _ChannelA
        second: {r: .156716406, g: .156716406, b: .156716406, a: 1}
      data:
        first:
          name: _ChannelB
        second: {r: .0895522237, g: .0895522237, b: .0895522237, a: 1}
      data:
        first:
          name: _ChannelC
        second: {r: .350746274, g: .350746274, b: .350746274, a: 1}
